<?xml version="1.0" encoding="UTF-8" standalone="no"?>
<!-- Created with Inkscape (http://www.inkscape.org/) -->

<svg
   width="297mm"
   height="210mm"
   viewBox="0 0 297 210"
   version="1.1"
   id="svg5"
   xml:space="preserve"
   inkscape:version="1.2.1 (9c6d41e410, 2022-07-14)"
   sodipodi:docname="04-EXECUTE-BY-ORACLE.svg"
   xmlns:inkscape="http://www.inkscape.org/namespaces/inkscape"
   xmlns:sodipodi="http://sodipodi.sourceforge.net/DTD/sodipodi-0.dtd"
   xmlns="http://www.w3.org/2000/svg"
   xmlns:svg="http://www.w3.org/2000/svg"><sodipodi:namedview
     id="namedview7"
     pagecolor="#ffffff"
     bordercolor="#000000"
     borderopacity="0.25"
     inkscape:showpageshadow="2"
     inkscape:pageopacity="0.0"
     inkscape:pagecheckerboard="0"
     inkscape:deskcolor="#d1d1d1"
     inkscape:document-units="mm"
     showgrid="false"
     inkscape:zoom="0.97638867"
     inkscape:cx="426.05984"
     inkscape:cy="315.96024"
     inkscape:window-width="1920"
     inkscape:window-height="995"
     inkscape:window-x="0"
     inkscape:window-y="0"
     inkscape:window-maximized="1"
     inkscape:current-layer="layer1" /><defs
     id="defs2"><rect
       x="116.74478"
       y="452.8246"
       width="274.91694"
       height="237.18622"
       id="rect3884" /></defs><g
     inkscape:label="Layer 1"
     inkscape:groupmode="layer"
     id="layer1"><g
       id="g7682"
       transform="translate(0,-6.879167)"><path
         style="fill:#000000;stroke-width:0.10053"
         d="m 225.59937,179.98353 c -1.52289,-0.0803 -2.39333,-0.16925 -2.66406,-0.27227 -0.22117,-0.0841 -0.8319,-0.18543 -1.35717,-0.22506 -0.52864,-0.0399 -1.05337,-0.13527 -1.17529,-0.21366 -0.12114,-0.0779 -0.48305,-0.17128 -0.80424,-0.20756 -0.3212,-0.0363 -0.74233,-0.14414 -0.93585,-0.2397 -0.19353,-0.0956 -0.57626,-0.2065 -0.85052,-0.24654 -0.27426,-0.04 -0.60834,-0.15908 -0.7424,-0.26453 -0.13406,-0.10546 -0.36644,-0.19173 -0.5164,-0.19173 -0.14996,0 -0.37377,-0.0877 -0.49736,-0.19489 -0.12359,-0.10719 -0.36157,-0.22495 -0.52884,-0.26169 -0.3035,-0.0667 -0.87934,-0.39593 -1.21243,-0.69328 -0.0968,-0.0864 -0.214,-0.15704 -0.26054,-0.15704 -0.21797,0 -1.62441,-1.3636 -1.62441,-1.57493 0,-0.0695 -0.10179,-0.22109 -0.22619,-0.33698 l -0.2262,-0.21072 -0.0264,-14.83893 c -0.0149,-8.34569 -0.0652,-14.88674 -0.11489,-14.94819 -0.0498,-0.0615 -0.0518,-0.32917 -0.005,-0.6119 0.0461,-0.27646 0.0871,-0.70623 0.0912,-0.95504 0.004,-0.24881 0.0735,-0.56549 0.1541,-0.70372 0.0806,-0.13821 0.21171,-0.38735 0.29125,-0.5536 0.16726,-0.34961 1.39089,-1.55754 1.57778,-1.55754 0.0693,0 0.19758,-0.069 0.28516,-0.15326 0.27779,-0.26739 0.86621,-0.61739 1.16333,-0.69196 0.15781,-0.0396 0.39838,-0.15969 0.53461,-0.26685 0.13623,-0.10715 0.3225,-0.19483 0.41393,-0.19483 0.0914,0 0.33156,-0.0843 0.53361,-0.18729 0.20205,-0.10301 0.5396,-0.21501 0.75011,-0.24888 0.2105,-0.0339 0.56195,-0.15316 0.78098,-0.26509 0.21904,-0.11193 0.58162,-0.20351 0.80573,-0.20351 0.22412,0 0.56516,-0.0843 0.75786,-0.18739 0.21641,-0.11574 0.6887,-0.21545 1.23529,-0.26079 0.48671,-0.0404 1.12967,-0.15942 1.4288,-0.26456 0.43829,-0.15405 0.85701,-0.19405 2.15668,-0.20605 1.1638,-0.0107 1.66162,-0.052 1.78818,-0.14804 0.23671,-0.17971 5.45211,-0.20097 5.63014,-0.0229 0.075,0.075 0.68306,0.13042 1.70399,0.15535 1.17575,0.0287 1.75721,0.0886 2.24218,0.23093 0.36013,0.10569 1.03871,0.22202 1.50796,0.25851 0.46925,0.0365 0.9533,0.12886 1.07566,0.20528 0.12236,0.0764 0.51221,0.17997 0.86633,0.23012 0.35412,0.0502 0.77581,0.15942 0.9371,0.24283 0.16128,0.0834 0.47264,0.18387 0.69189,0.22326 0.21926,0.0394 0.46718,0.13113 0.55094,0.20386 0.0837,0.0727 0.34711,0.17602 0.58524,0.22952 0.23813,0.0535 0.50889,0.1635 0.6017,0.24444 0.0928,0.0809 0.33476,0.20043 0.53768,0.26554 0.20292,0.0651 0.41966,0.17949 0.48164,0.25417 0.062,0.0747 0.22394,0.16371 0.3599,0.19784 0.13597,0.0341 0.24721,0.10581 0.24721,0.15931 0,0.0535 0.14702,0.16056 0.32672,0.23792 0.74127,0.31914 1.81011,1.68596 1.93607,2.47584 0.0397,0.24881 0.12357,0.51589 0.18644,0.59351 0.14656,0.18096 0.0993,10.02223 -0.0509,10.6033 -0.0699,0.27049 -0.0678,0.42279 0.007,0.49763 0.15913,0.15912 0.14989,9.13367 -0.01,9.29312 -0.0895,0.0895 -0.0891,0.21196 0.002,0.51554 0.14173,0.47306 0.16094,9.1188 0.0204,9.20563 -0.0479,0.0296 -0.11859,0.28249 -0.15702,0.56191 -0.0462,0.3363 -0.1344,0.54835 -0.26075,0.62725 -0.10497,0.0656 -0.19086,0.21004 -0.19086,0.32107 0,0.24792 -1.36914,1.55932 -1.62796,1.55932 -0.0999,0 -0.18159,0.0478 -0.18159,0.10618 0,0.0584 -0.2017,0.19541 -0.44822,0.30446 -0.24653,0.10904 -0.47229,0.23721 -0.50171,0.2848 -0.0294,0.0476 -0.17474,0.11696 -0.32295,0.15416 -0.14821,0.0372 -0.38093,0.15531 -0.51716,0.26247 -0.13623,0.10715 -0.3712,0.19484 -0.52217,0.19484 -0.15096,0 -0.38236,0.0841 -0.51422,0.18692 -0.13186,0.10281 -0.46595,0.21942 -0.74241,0.25916 -0.27645,0.0397 -0.60905,0.14062 -0.73909,0.22422 -0.13005,0.0836 -0.53719,0.19351 -0.90478,0.24425 -0.36758,0.0507 -0.80405,0.15964 -0.96992,0.24203 -0.16588,0.0824 -0.70874,0.18987 -1.20637,0.23886 -0.49762,0.049 -1.17621,0.15809 -1.50796,0.24244 -0.3745,0.0952 -1.55601,0.19566 -3.11645,0.26496 -2.89397,0.12851 -3.86718,0.12269 -6.98687,-0.0418 z m 7.1104,-2.25597 c 1.54712,-0.0695 2.3204,-0.14388 2.51327,-0.24178 0.15322,-0.0778 0.66305,-0.17401 1.13294,-0.21384 0.4699,-0.0398 1.01277,-0.14034 1.20637,-0.22335 0.19361,-0.083 0.657,-0.19074 1.02977,-0.23938 0.37276,-0.0486 0.77991,-0.1553 0.90477,-0.23702 0.12486,-0.0817 0.4306,-0.17798 0.67941,-0.21393 0.24882,-0.0359 0.56549,-0.14424 0.70372,-0.24064 0.13822,-0.0964 0.41642,-0.20619 0.61821,-0.24397 0.20179,-0.0378 0.42122,-0.13417 0.48762,-0.21418 0.0664,-0.08 0.27453,-0.17432 0.46249,-0.20959 0.18797,-0.0353 0.34176,-0.10189 0.34176,-0.14808 0,-0.10499 1.03493,-0.79843 1.19164,-0.79843 0.0634,0 0.11525,-0.0663 0.11525,-0.14726 0,-0.081 0.0799,-0.19002 0.1776,-0.2423 0.0977,-0.0523 0.25601,-0.34971 0.35186,-0.66097 0.14729,-0.47833 0.17426,-0.99155 0.17426,-3.31577 0,-2.97406 -0.0166,-3.05993 -0.52137,-2.69033 -0.12794,0.0937 -0.50404,0.30094 -0.8358,0.46058 -0.33174,0.15964 -0.76406,0.37082 -0.96069,0.46929 -0.19663,0.0985 -0.53592,0.21086 -0.75398,0.24975 -0.21805,0.0389 -0.53218,0.14984 -0.69806,0.24657 -0.16587,0.0967 -0.51682,0.2035 -0.77987,0.23728 -0.26306,0.0338 -0.57973,0.12691 -0.70371,0.20697 -0.124,0.0801 -0.56473,0.17635 -0.97942,0.21398 -0.41469,0.0376 -0.85987,0.135 -0.98929,0.2164 -0.14985,0.0942 -0.70924,0.18159 -1.54023,0.24051 -0.71771,0.0509 -1.39748,0.14206 -1.5106,0.2026 -0.11376,0.0609 -1.29526,0.15882 -2.64397,0.21917 -2.69885,0.12076 -7.17824,-0.008 -7.5702,-0.21802 -0.11883,-0.0636 -0.80428,-0.15398 -1.52322,-0.20087 -0.87171,-0.0568 -1.38429,-0.13577 -1.53869,-0.23694 -0.12733,-0.0834 -0.56965,-0.1842 -0.98293,-0.22392 -0.41328,-0.0397 -0.85786,-0.13991 -0.98796,-0.22263 -0.1301,-0.0827 -0.508,-0.18878 -0.83978,-0.23567 -0.33178,-0.0469 -0.67772,-0.15017 -0.76876,-0.2295 -0.091,-0.0793 -0.34131,-0.17578 -0.55615,-0.21434 -0.21485,-0.0386 -0.55347,-0.15739 -0.75249,-0.26406 -0.19903,-0.10667 -0.41299,-0.19394 -0.47546,-0.19394 -0.0625,0 -0.22148,-0.0843 -0.35335,-0.18724 -0.13186,-0.10297 -0.35285,-0.22229 -0.49108,-0.26515 -0.13823,-0.0429 -0.35843,-0.16156 -0.48933,-0.26379 -0.13091,-0.10222 -0.27793,-0.16119 -0.32673,-0.13103 -0.13708,0.0847 -0.11275,6.04191 0.0258,6.3076 0.14376,0.27576 1.30503,1.37466 1.4533,1.37525 0.0605,2e-4 0.18791,0.0864 0.28303,0.19154 0.0951,0.10511 0.32396,0.21944 0.50853,0.25406 0.18457,0.0346 0.35896,0.12387 0.38753,0.19832 0.0286,0.0745 0.2252,0.16751 0.43696,0.20677 0.21176,0.0393 0.52073,0.15258 0.6866,0.25179 0.16588,0.0992 0.48255,0.21186 0.70372,0.25032 0.22117,0.0385 0.4958,0.13018 0.6103,0.20381 0.1145,0.0736 0.47641,0.1662 0.80425,0.20571 0.32783,0.0395 0.78584,0.15687 1.0178,0.26081 0.23196,0.10394 0.59387,0.18924 0.80425,0.18956 0.37692,7.6e-4 1.24864,0.12958 1.73966,0.25745 0.56143,0.1462 1.63381,0.23489 2.96566,0.24526 0.77408,0.006 1.58838,0.0499 1.80955,0.0975 0.22116,0.0476 0.76403,0.0692 1.20636,0.048 0.44234,-0.0212 1.80985,-0.0837 3.03892,-0.13892 z m 0.37912,-9.67622 c 0.48313,-0.13368 0.66769,-0.15703 2.17476,-0.27508 0.65828,-0.0516 1.29543,-0.15669 1.45769,-0.24052 0.15854,-0.0819 0.60492,-0.18203 0.99196,-0.22253 0.38705,-0.0405 0.86205,-0.15296 1.05557,-0.24994 0.19352,-0.097 0.60067,-0.2092 0.90478,-0.24937 0.3041,-0.0402 0.62857,-0.13987 0.72104,-0.22153 0.0925,-0.0817 0.35075,-0.17298 0.57396,-0.20292 0.2232,-0.0299 0.48253,-0.1392 0.5763,-0.2428 0.0938,-0.10361 0.26777,-0.18838 0.38669,-0.18838 0.11891,0 0.3695,-0.11309 0.55686,-0.25132 0.18737,-0.13823 0.39813,-0.25133 0.46837,-0.25133 0.13704,0 0.34828,-0.1759 1.12394,-0.93594 0.41317,-0.40484 0.51193,-0.57531 0.6067,-1.04721 0.14953,-0.74459 0.1545,-5.61978 0.006,-5.71168 -0.0591,-0.0365 -0.0816,-0.14096 -0.05,-0.23212 0.0523,-0.15122 0.0463,-0.15161 -0.0689,-0.004 -0.0695,0.0887 -0.22194,0.19166 -0.33884,0.22876 -0.11691,0.0371 -0.29339,0.15679 -0.39219,0.26596 -0.0988,0.10917 -0.27441,0.1995 -0.39025,0.20073 -0.11583,0.001 -0.32371,0.0907 -0.46193,0.19882 -0.13823,0.10813 -0.32093,0.1976 -0.406,0.19883 -0.0851,0.001 -0.33389,0.0949 -0.55292,0.20823 -0.21904,0.1133 -0.6213,0.24939 -0.89391,0.30243 -0.27261,0.053 -0.56667,0.15819 -0.65345,0.23366 -0.0868,0.0755 -0.4466,0.16851 -0.79958,0.20674 -0.353,0.0382 -0.74584,0.13768 -0.873,0.221 -0.12716,0.0833 -0.63002,0.19223 -1.11748,0.24202 -0.48746,0.0498 -1.06725,0.14221 -1.28842,0.20536 -1.86506,0.53253 -12.38528,0.53466 -14.02402,0.003 -0.19352,-0.0628 -0.75811,-0.16058 -1.25464,-0.21727 -0.49653,-0.0567 -0.99416,-0.1628 -1.10584,-0.23579 -0.11167,-0.073 -0.47401,-0.16645 -0.80518,-0.2077 -0.33117,-0.0412 -0.76094,-0.15441 -0.95504,-0.25147 -0.1941,-0.0971 -0.52816,-0.20362 -0.74236,-0.23679 -0.21421,-0.0332 -0.4642,-0.12794 -0.55555,-0.21061 -0.0913,-0.0827 -0.35509,-0.18053 -0.58609,-0.21747 -0.23101,-0.0369 -0.49696,-0.15219 -0.59101,-0.25611 -0.094,-0.10392 -0.24836,-0.18895 -0.34292,-0.18895 -0.0946,0 -0.28579,-0.0896 -0.42497,-0.19905 -0.13918,-0.10948 -0.37095,-0.24387 -0.51503,-0.29866 -0.23005,-0.0875 -0.2691,-0.0713 -0.32035,0.13296 -0.0321,0.12791 -0.0439,1.56292 -0.0263,3.18891 l 0.0321,2.95635 0.51869,0.52779 c 0.28529,0.29028 0.56249,0.52778 0.61601,0.52778 0.0535,0 0.1558,0.0705 0.22728,0.15661 0.0715,0.0861 0.26929,0.22265 0.43957,0.30337 0.17027,0.0807 0.44531,0.21994 0.61118,0.30937 0.73184,0.39457 1.03191,0.51725 1.42678,0.5833 0.2318,0.0388 0.47247,0.13196 0.53482,0.20708 0.0623,0.0751 0.37031,0.16747 0.68437,0.20522 0.31405,0.0378 0.64796,0.13609 0.742,0.21853 0.0986,0.0864 0.54544,0.192 1.05558,0.24935 0.48651,0.0547 0.98218,0.16111 1.10147,0.23644 0.12604,0.0796 0.67351,0.16527 1.3069,0.20451 0.5995,0.0372 1.13657,0.10396 1.19349,0.14848 0.0569,0.0445 0.23787,0.0807 0.40212,0.0804 0.16425,-3e-4 0.43435,0.0442 0.60023,0.0988 0.42921,0.1413 6.9269,0.13811 7.43926,-0.004 z m 1.0209,-9.8226 c 0.75913,-0.0556 1.44432,-0.15833 1.60849,-0.24121 0.1573,-0.0794 0.67986,-0.17093 1.16124,-0.20337 0.52312,-0.0353 0.96938,-0.12068 1.10925,-0.21232 0.12871,-0.0843 0.53323,-0.19571 0.89894,-0.2475 0.3657,-0.0518 0.77131,-0.16174 0.90135,-0.24433 0.13005,-0.0826 0.44002,-0.18292 0.68883,-0.22294 0.24882,-0.04 0.56028,-0.15747 0.69214,-0.26099 0.13187,-0.10352 0.3283,-0.18821 0.43653,-0.18821 0.10823,0 0.31181,-0.0905 0.45239,-0.20106 0.14058,-0.11059 0.33338,-0.20107 0.42843,-0.20107 0.0951,0 0.29486,-0.11309 0.44401,-0.25132 0.14915,-0.13823 0.32856,-0.25133 0.39868,-0.25133 0.0701,0 0.22175,-0.10179 0.33696,-0.22619 0.11521,-0.12441 0.35473,-0.35469 0.53227,-0.51173 0.542,-0.47941 0.60754,-0.93689 0.58919,-4.11268 -0.01,-1.68644 -0.0539,-2.78972 -0.11175,-2.78972 -0.0526,0 -0.21067,0.0905 -0.35125,0.20106 -0.14059,0.11058 -0.33297,0.20106 -0.42753,0.20106 -0.0946,0 -0.25381,0.0905 -0.35388,0.20106 -0.10008,0.11058 -0.28195,0.20106 -0.40415,0.20106 -0.1222,0 -0.33521,0.0889 -0.47334,0.19756 -0.13814,0.10866 -0.46377,0.24521 -0.72364,0.30344 -0.25986,0.0582 -0.5714,0.16801 -0.69231,0.24393 -0.1209,0.0759 -0.44602,0.16959 -0.72248,0.20815 -0.27646,0.0386 -0.57122,0.13135 -0.65502,0.20621 -0.0838,0.0749 -0.5039,0.17977 -0.93355,0.23311 -0.42965,0.0533 -0.84943,0.15363 -0.93285,0.22286 -0.0834,0.0692 -0.72644,0.18182 -1.42892,0.2502 -0.70249,0.0684 -1.45821,0.17865 -1.67937,0.24503 -0.57541,0.17271 -8.1534,0.25884 -9.9013,0.11253 -0.7357,-0.0616 -1.38748,-0.15218 -1.44841,-0.20133 -0.0609,-0.0492 -0.58579,-0.12196 -1.16635,-0.16179 -0.58057,-0.0398 -1.21252,-0.13714 -1.40433,-0.21625 -0.19182,-0.0791 -0.68944,-0.19096 -1.10584,-0.24854 -0.41639,-0.0576 -0.82515,-0.16581 -0.90835,-0.24052 -0.0832,-0.0747 -0.39987,-0.16709 -0.70371,-0.2053 -0.30385,-0.0382 -0.68816,-0.14947 -0.85404,-0.24722 -0.16587,-0.0978 -0.45992,-0.21112 -0.65345,-0.25194 -0.19352,-0.0408 -0.45974,-0.15879 -0.5916,-0.26217 -0.13187,-0.10338 -0.33974,-0.18796 -0.46194,-0.18796 -0.12221,0 -0.30407,-0.0905 -0.40415,-0.20106 -0.10008,-0.11058 -0.25932,-0.20106 -0.35388,-0.20106 -0.0946,0 -0.28695,-0.0905 -0.42753,-0.20106 -0.14058,-0.11059 -0.28472,-0.20106 -0.32031,-0.20106 -0.0356,0 -0.0511,1.46092 -0.0344,3.24649 l 0.0303,3.24649 0.36201,0.37261 c 0.19911,0.20494 0.414,0.37261 0.47753,0.37261 0.0635,0 0.1155,0.0443 0.1155,0.0985 0,0.0542 0.18096,0.1908 0.40213,0.30363 0.22116,0.11283 0.40212,0.24456 0.40212,0.29274 0,0.0482 0.12083,0.11791 0.26852,0.15498 0.14769,0.0371 0.37999,0.15507 0.51621,0.26223 0.13623,0.10715 0.34337,0.195 0.46032,0.1952 0.11695,2e-4 0.35996,0.0902 0.54001,0.19998 0.18006,0.10978 0.51935,0.22986 0.75398,0.26686 0.23464,0.037 0.58495,0.14619 0.77847,0.24268 0.19352,0.0965 0.57805,0.20594 0.85451,0.24325 0.27646,0.0373 0.60508,0.13363 0.73028,0.21405 0.12519,0.0804 0.6002,0.17367 1.05557,0.20722 0.45537,0.0336 0.95607,0.12565 1.11266,0.20466 0.1808,0.0912 0.87797,0.17854 1.91008,0.23923 0.89395,0.0526 1.71584,0.11397 1.82643,0.13645 0.3452,0.0701 5.96458,-0.0321 7.35432,-0.13388 z m -1.17169,-9.56118 c 0.52527,-0.0439 1.24909,-0.15088 1.60849,-0.23772 0.35939,-0.0868 0.97012,-0.16047 1.35716,-0.16363 0.45608,-0.004 0.84593,-0.0703 1.10785,-0.18932 0.22227,-0.10097 0.74251,-0.21671 1.1561,-0.25719 0.41358,-0.0405 0.82353,-0.13795 0.911,-0.21661 0.0875,-0.0787 0.42254,-0.19174 0.74461,-0.25127 0.32206,-0.0595 0.68027,-0.167 0.79601,-0.23879 0.11573,-0.0718 0.36113,-0.15828 0.54531,-0.19217 0.18418,-0.0339 0.4504,-0.15251 0.59161,-0.26358 0.1412,-0.11107 0.34155,-0.20194 0.44521,-0.20194 0.10367,0 0.26596,-0.0905 0.36064,-0.20106 0.0947,-0.11059 0.24284,-0.20106 0.32923,-0.20106 0.18876,0 0.68185,-0.38961 1.27233,-1.00531 0.39941,-0.41648 0.43394,-0.49466 0.43493,-0.98497 7.6e-4,-0.43975 -0.0427,-0.57319 -0.25026,-0.76551 -0.13823,-0.12811 -0.25133,-0.28428 -0.25133,-0.34706 0,-0.0628 -0.0663,-0.11413 -0.14725,-0.11413 -0.081,0 -0.19569,-0.0905 -0.25487,-0.20107 -0.0592,-0.11058 -0.1704,-0.20106 -0.24715,-0.20106 -0.0768,0 -0.26742,-0.1069 -0.42372,-0.23757 -0.15629,-0.13066 -0.39727,-0.2726 -0.5355,-0.31542 -0.13822,-0.0428 -0.35921,-0.1621 -0.49107,-0.26508 -0.13187,-0.10298 -0.33668,-0.18723 -0.45515,-0.18723 -0.11848,0 -0.31165,-0.0674 -0.42929,-0.14981 -0.11763,-0.0824 -0.44055,-0.19842 -0.7176,-0.25784 -0.27704,-0.0594 -0.67543,-0.19557 -0.88531,-0.30258 -0.20988,-0.107 -0.5643,-0.19485 -0.7876,-0.19521 -0.2359,-3.8e-4 -0.53234,-0.0843 -0.70759,-0.2004 -0.1831,-0.12126 -0.47171,-0.2 -0.73461,-0.2004 -0.56314,-8.7e-4 -1.84694,-0.20674 -1.99285,-0.31958 -0.17209,-0.1331 -3.64973,-0.32056 -5.91817,-0.31902 -2.58113,0.002 -5.54319,0.18893 -5.99821,0.37904 -0.19047,0.0796 -0.75096,0.1755 -1.24554,0.21314 -0.51124,0.0389 -1.0026,0.13339 -1.13881,0.21899 -0.13178,0.0828 -0.54986,0.18951 -0.92908,0.23713 -0.37922,0.0476 -0.79165,0.15237 -0.91652,0.23279 -0.12486,0.0804 -0.40797,0.17769 -0.62914,0.21616 -0.22117,0.0385 -0.54318,0.1549 -0.71558,0.25876 -0.1724,0.10386 -0.40298,0.18883 -0.5124,0.18883 -0.10942,0 -0.30469,0.0917 -0.43393,0.2038 -0.12924,0.11209 -0.35105,0.23126 -0.4929,0.26483 -0.14186,0.0336 -0.32626,0.12002 -0.40978,0.19212 -0.3034,0.26191 -0.85869,0.64335 -1.07964,0.74162 -0.12441,0.0553 -0.2262,0.15953 -0.2262,0.23155 0,0.072 -0.0905,0.20841 -0.20106,0.3031 -0.15463,0.1324 -0.20106,0.29656 -0.20106,0.71092 0,0.53591 0.004,0.54227 0.69938,1.20434 0.38465,0.36607 0.81109,0.69363 0.94764,0.7279 0.13654,0.0343 0.32646,0.14872 0.42204,0.25433 0.0956,0.10561 0.25114,0.19202 0.3457,0.19202 0.0946,0 0.28221,0.0867 0.41702,0.19279 0.1348,0.10604 0.42364,0.22421 0.64187,0.26262 0.21823,0.0384 0.49728,0.13279 0.62012,0.20978 0.12284,0.077 0.46169,0.19108 0.75301,0.25354 0.29131,0.0625 0.62057,0.17305 0.73169,0.2457 0.11112,0.0727 0.51871,0.16383 0.90575,0.20261 0.38705,0.0388 0.86138,0.1542 1.05408,0.25651 0.24757,0.13142 0.56321,0.186 1.07576,0.186 0.73664,0 1.62693,0.13692 1.99192,0.30636 0.11058,0.0513 0.54035,0.10751 0.95504,0.12483 1.58644,0.0663 6.22516,0.0478 7.13767,-0.0285 z"
         id="path295" /><path
         style="fill:#000000;stroke-width:0.10053"
         d="m 184.31203,179.98353 c -1.52289,-0.0803 -2.39333,-0.16925 -2.66406,-0.27227 -0.22117,-0.0841 -0.8319,-0.18543 -1.35717,-0.22506 -0.52864,-0.0399 -1.05337,-0.13527 -1.17529,-0.21366 -0.12114,-0.0779 -0.48305,-0.17128 -0.80424,-0.20756 -0.3212,-0.0363 -0.74233,-0.14414 -0.93585,-0.2397 -0.19353,-0.0956 -0.57626,-0.2065 -0.85052,-0.24654 -0.27426,-0.04 -0.60834,-0.15908 -0.7424,-0.26453 -0.13406,-0.10546 -0.36644,-0.19173 -0.5164,-0.19173 -0.14996,0 -0.37377,-0.0877 -0.49736,-0.19489 -0.12359,-0.10719 -0.36157,-0.22495 -0.52884,-0.26169 -0.3035,-0.0667 -0.87934,-0.39593 -1.21243,-0.69328 -0.0968,-0.0864 -0.214,-0.15704 -0.26054,-0.15704 -0.21797,0 -1.62441,-1.3636 -1.62441,-1.57493 0,-0.0695 -0.10179,-0.22109 -0.22619,-0.33698 l -0.2262,-0.21072 -0.0264,-14.83893 c -0.0149,-8.34569 -0.0652,-14.88674 -0.11489,-14.94819 -0.0498,-0.0615 -0.0518,-0.32917 -0.005,-0.6119 0.0461,-0.27646 0.0871,-0.70623 0.0912,-0.95504 0.004,-0.24881 0.0735,-0.56549 0.1541,-0.70372 0.0806,-0.13821 0.21171,-0.38735 0.29125,-0.5536 0.16726,-0.34961 1.39089,-1.55754 1.57778,-1.55754 0.0693,0 0.19758,-0.069 0.28516,-0.15326 0.27779,-0.26739 0.86621,-0.61739 1.16333,-0.69196 0.15781,-0.0396 0.39838,-0.15969 0.53461,-0.26685 0.13623,-0.10715 0.3225,-0.19483 0.41393,-0.19483 0.0914,0 0.33156,-0.0843 0.53361,-0.18729 0.20205,-0.10301 0.5396,-0.21501 0.75011,-0.24888 0.2105,-0.0339 0.56195,-0.15316 0.78098,-0.26509 0.21904,-0.11193 0.58162,-0.20351 0.80573,-0.20351 0.22412,0 0.56516,-0.0843 0.75786,-0.18739 0.21641,-0.11574 0.6887,-0.21545 1.23529,-0.26079 0.48671,-0.0404 1.12967,-0.15942 1.4288,-0.26456 0.43829,-0.15405 0.85701,-0.19405 2.15668,-0.20605 1.1638,-0.0107 1.66162,-0.052 1.78818,-0.14804 0.23671,-0.17971 5.45211,-0.20097 5.63014,-0.0229 0.075,0.075 0.68306,0.13042 1.70399,0.15535 1.17575,0.0287 1.75721,0.0886 2.24218,0.23093 0.36013,0.10569 1.03871,0.22202 1.50796,0.25851 0.46925,0.0365 0.9533,0.12886 1.07566,0.20528 0.12236,0.0764 0.51221,0.17997 0.86633,0.23012 0.35412,0.0502 0.77581,0.15942 0.9371,0.24283 0.16128,0.0834 0.47264,0.18387 0.69189,0.22326 0.21926,0.0394 0.46718,0.13113 0.55094,0.20386 0.0837,0.0727 0.34711,0.17602 0.58524,0.22952 0.23813,0.0535 0.50889,0.1635 0.6017,0.24444 0.0928,0.0809 0.33476,0.20043 0.53768,0.26554 0.20292,0.0651 0.41966,0.17949 0.48164,0.25417 0.062,0.0747 0.22394,0.16371 0.3599,0.19784 0.13597,0.0341 0.24721,0.10581 0.24721,0.15931 0,0.0535 0.14702,0.16056 0.32672,0.23792 0.74127,0.31914 1.81011,1.68596 1.93607,2.47584 0.0397,0.24881 0.12357,0.51589 0.18644,0.59351 0.14656,0.18096 0.0993,10.02223 -0.0509,10.6033 -0.0699,0.27049 -0.0678,0.42279 0.007,0.49763 0.15913,0.15912 0.14989,9.13367 -0.01,9.29312 -0.0895,0.0895 -0.0891,0.21196 0.002,0.51554 0.14173,0.47306 0.16094,9.1188 0.0204,9.20563 -0.0479,0.0296 -0.11859,0.28248 -0.15702,0.56191 -0.0462,0.3363 -0.1344,0.54835 -0.26075,0.62725 -0.10497,0.0656 -0.19086,0.21004 -0.19086,0.32107 0,0.24791 -1.36914,1.55932 -1.62796,1.55932 -0.0999,0 -0.18159,0.0478 -0.18159,0.10618 0,0.0584 -0.2017,0.19541 -0.44822,0.30446 -0.24653,0.10904 -0.47229,0.2372 -0.50171,0.2848 -0.0294,0.0476 -0.17474,0.11696 -0.32295,0.15416 -0.14821,0.0372 -0.38093,0.15531 -0.51716,0.26246 -0.13623,0.10716 -0.3712,0.19484 -0.52217,0.19484 -0.15096,0 -0.38236,0.0841 -0.51422,0.18692 -0.13186,0.10281 -0.46595,0.21943 -0.74241,0.25916 -0.27645,0.0397 -0.60905,0.14063 -0.73909,0.22423 -0.13005,0.0836 -0.53719,0.19351 -0.90478,0.24424 -0.36758,0.0507 -0.80405,0.15964 -0.96992,0.24203 -0.16588,0.0824 -0.70874,0.18987 -1.20637,0.23887 -0.49762,0.049 -1.17621,0.15808 -1.50796,0.24243 -0.3745,0.0952 -1.55601,0.19566 -3.11645,0.26496 -2.89397,0.12851 -3.86718,0.12269 -6.98687,-0.0418 z m 7.1104,-2.25597 c 1.54712,-0.0695 2.3204,-0.14388 2.51327,-0.24178 0.15322,-0.0778 0.66305,-0.17401 1.13294,-0.21384 0.4699,-0.0398 1.01277,-0.14034 1.20637,-0.22335 0.19361,-0.083 0.657,-0.19074 1.02977,-0.23938 0.37276,-0.0486 0.77991,-0.1553 0.90477,-0.23702 0.12486,-0.0817 0.4306,-0.17798 0.67941,-0.21393 0.24882,-0.0359 0.56549,-0.14424 0.70372,-0.24064 0.13822,-0.0964 0.41642,-0.20619 0.61821,-0.24397 0.20179,-0.0378 0.42122,-0.13417 0.48762,-0.21418 0.0664,-0.08 0.27453,-0.17432 0.46249,-0.20959 0.18797,-0.0353 0.34176,-0.10189 0.34176,-0.14808 0,-0.10499 1.03493,-0.79843 1.19164,-0.79843 0.0634,0 0.11525,-0.0663 0.11525,-0.14726 0,-0.081 0.0799,-0.19002 0.1776,-0.2423 0.0977,-0.0523 0.25601,-0.34971 0.35186,-0.66097 0.14729,-0.47833 0.17426,-0.99155 0.17426,-3.31577 0,-2.97406 -0.0166,-3.05993 -0.52137,-2.69033 -0.12794,0.0937 -0.50404,0.30094 -0.8358,0.46058 -0.33174,0.15964 -0.76406,0.37082 -0.96069,0.46929 -0.19663,0.0985 -0.53592,0.21086 -0.75398,0.24975 -0.21805,0.0389 -0.53218,0.14984 -0.69806,0.24657 -0.16587,0.0967 -0.51682,0.2035 -0.77987,0.23728 -0.26306,0.0338 -0.57973,0.12691 -0.70371,0.20697 -0.124,0.0801 -0.56473,0.17635 -0.97942,0.21398 -0.41469,0.0376 -0.85987,0.135 -0.98929,0.2164 -0.14985,0.0942 -0.70924,0.18159 -1.54023,0.24051 -0.71771,0.0509 -1.39748,0.14206 -1.5106,0.2026 -0.11376,0.0609 -1.29526,0.15882 -2.64397,0.21917 -2.69885,0.12076 -7.17824,-0.008 -7.5702,-0.21802 -0.11883,-0.0636 -0.80428,-0.15398 -1.52322,-0.20087 -0.87171,-0.0568 -1.38429,-0.13577 -1.53869,-0.23694 -0.12733,-0.0834 -0.56965,-0.1842 -0.98293,-0.22392 -0.41328,-0.0397 -0.85786,-0.13991 -0.98796,-0.22263 -0.1301,-0.0827 -0.508,-0.18878 -0.83978,-0.23567 -0.33178,-0.0469 -0.67772,-0.15017 -0.76876,-0.2295 -0.091,-0.0793 -0.34131,-0.17578 -0.55615,-0.21434 -0.21485,-0.0386 -0.55347,-0.15739 -0.75249,-0.26406 -0.19903,-0.10667 -0.41299,-0.19394 -0.47546,-0.19394 -0.0625,0 -0.22148,-0.0843 -0.35335,-0.18724 -0.13186,-0.10297 -0.35285,-0.22229 -0.49108,-0.26515 -0.13823,-0.0429 -0.35843,-0.16156 -0.48933,-0.26379 -0.13091,-0.10222 -0.27793,-0.16119 -0.32673,-0.13103 -0.13708,0.0847 -0.11275,6.04191 0.0258,6.3076 0.14376,0.27576 1.30503,1.37466 1.4533,1.37525 0.0605,2e-4 0.18791,0.0864 0.28303,0.19154 0.0951,0.10511 0.32396,0.21944 0.50853,0.25406 0.18457,0.0346 0.35896,0.12387 0.38753,0.19832 0.0286,0.0745 0.2252,0.16751 0.43696,0.20677 0.21176,0.0393 0.52073,0.15258 0.6866,0.25179 0.16588,0.0992 0.48255,0.21186 0.70372,0.25032 0.22117,0.0385 0.4958,0.13018 0.6103,0.20381 0.1145,0.0736 0.47641,0.1662 0.80425,0.20571 0.32783,0.0395 0.78584,0.15687 1.0178,0.26081 0.23196,0.10394 0.59387,0.18924 0.80425,0.18956 0.37692,7.6e-4 1.24864,0.12958 1.73966,0.25745 0.56143,0.1462 1.63381,0.23489 2.96566,0.24526 0.77408,0.006 1.58838,0.0499 1.80955,0.0975 0.22116,0.0476 0.76403,0.0692 1.20636,0.048 0.44234,-0.0212 1.80985,-0.0837 3.03892,-0.13892 z m 0.37912,-9.67622 c 0.48313,-0.13368 0.66769,-0.15703 2.17476,-0.27508 0.65828,-0.0516 1.29543,-0.15669 1.45769,-0.24052 0.15854,-0.0819 0.60492,-0.18203 0.99196,-0.22253 0.38705,-0.0405 0.86205,-0.15296 1.05557,-0.24994 0.19352,-0.097 0.60067,-0.2092 0.90478,-0.24937 0.3041,-0.0402 0.62857,-0.13987 0.72104,-0.22153 0.0925,-0.0817 0.35075,-0.17298 0.57396,-0.20292 0.2232,-0.0299 0.48253,-0.1392 0.5763,-0.2428 0.0938,-0.10361 0.26777,-0.18838 0.38669,-0.18838 0.11891,0 0.3695,-0.11309 0.55686,-0.25132 0.18737,-0.13823 0.39813,-0.25133 0.46837,-0.25133 0.13704,0 0.34828,-0.1759 1.12394,-0.93594 0.41317,-0.40484 0.51193,-0.57531 0.6067,-1.04721 0.14953,-0.74459 0.1545,-5.61978 0.006,-5.71168 -0.0591,-0.0365 -0.0816,-0.14096 -0.05,-0.23212 0.0523,-0.15122 0.0463,-0.15161 -0.0689,-0.004 -0.0695,0.0887 -0.22194,0.19166 -0.33884,0.22876 -0.11691,0.0371 -0.29339,0.15679 -0.39219,0.26596 -0.0988,0.10917 -0.27441,0.1995 -0.39025,0.20073 -0.11583,0.001 -0.32371,0.0907 -0.46193,0.19882 -0.13823,0.10813 -0.32093,0.1976 -0.406,0.19883 -0.0851,0.001 -0.33389,0.0949 -0.55292,0.20823 -0.21904,0.1133 -0.6213,0.24939 -0.89391,0.30243 -0.27261,0.053 -0.56667,0.15819 -0.65345,0.23366 -0.0868,0.0755 -0.4466,0.16851 -0.79958,0.20674 -0.353,0.0382 -0.74584,0.13768 -0.873,0.221 -0.12716,0.0833 -0.63002,0.19223 -1.11748,0.24202 -0.48746,0.0498 -1.06725,0.14221 -1.28842,0.20536 -1.86506,0.53253 -12.38528,0.53466 -14.02402,0.003 -0.19352,-0.0628 -0.75811,-0.16058 -1.25464,-0.21727 -0.49653,-0.0567 -0.99416,-0.1628 -1.10584,-0.23579 -0.11167,-0.073 -0.47401,-0.16645 -0.80518,-0.2077 -0.33117,-0.0412 -0.76094,-0.15441 -0.95504,-0.25147 -0.1941,-0.0971 -0.52816,-0.20362 -0.74236,-0.23679 -0.21421,-0.0332 -0.4642,-0.12794 -0.55555,-0.21061 -0.0913,-0.0827 -0.35509,-0.18053 -0.58609,-0.21747 -0.23101,-0.0369 -0.49696,-0.15219 -0.59101,-0.25611 -0.094,-0.10392 -0.24836,-0.18895 -0.34292,-0.18895 -0.0946,0 -0.28579,-0.0896 -0.42497,-0.19905 -0.13918,-0.10948 -0.37095,-0.24387 -0.51503,-0.29866 -0.23005,-0.0875 -0.2691,-0.0713 -0.32035,0.13296 -0.0321,0.12791 -0.0439,1.56292 -0.0263,3.18891 l 0.0321,2.95635 0.51869,0.52779 c 0.28529,0.29028 0.56249,0.52778 0.61601,0.52778 0.0535,0 0.1558,0.0705 0.22728,0.15661 0.0715,0.0861 0.26929,0.22265 0.43957,0.30337 0.17027,0.0807 0.44531,0.21994 0.61118,0.30937 0.73184,0.39457 1.03191,0.51725 1.42678,0.5833 0.2318,0.0388 0.47247,0.13196 0.53482,0.20708 0.0623,0.0751 0.37031,0.16747 0.68437,0.20522 0.31405,0.0378 0.64796,0.13609 0.742,0.21853 0.0986,0.0864 0.54544,0.192 1.05558,0.24935 0.48651,0.0547 0.98218,0.16111 1.10147,0.23644 0.12604,0.0796 0.67351,0.16527 1.3069,0.20451 0.5995,0.0372 1.13657,0.10396 1.19349,0.14848 0.0569,0.0445 0.23787,0.0807 0.40212,0.0804 0.16425,-3e-4 0.43435,0.0442 0.60023,0.0988 0.42921,0.1413 6.9269,0.13811 7.43926,-0.004 z m 1.0209,-9.8226 c 0.75913,-0.0556 1.44432,-0.15833 1.60849,-0.24121 0.1573,-0.0794 0.67986,-0.17093 1.16124,-0.20337 0.52312,-0.0353 0.96938,-0.12068 1.10925,-0.21232 0.12871,-0.0843 0.53323,-0.19571 0.89894,-0.2475 0.3657,-0.0518 0.77131,-0.16174 0.90135,-0.24433 0.13005,-0.0826 0.44002,-0.18292 0.68883,-0.22294 0.24882,-0.04 0.56028,-0.15747 0.69214,-0.26099 0.13187,-0.10352 0.3283,-0.18821 0.43653,-0.18821 0.10823,0 0.31181,-0.0905 0.45239,-0.20106 0.14058,-0.11059 0.33338,-0.20107 0.42843,-0.20107 0.0951,0 0.29486,-0.11309 0.44401,-0.25132 0.14915,-0.13823 0.32856,-0.25133 0.39868,-0.25133 0.0701,0 0.22175,-0.10179 0.33696,-0.22619 0.11521,-0.12441 0.35473,-0.35469 0.53227,-0.51173 0.542,-0.47941 0.60754,-0.93689 0.58919,-4.11268 -0.01,-1.68644 -0.0539,-2.78972 -0.11175,-2.78972 -0.0526,0 -0.21067,0.0905 -0.35125,0.20106 -0.14059,0.11058 -0.33297,0.20106 -0.42753,0.20106 -0.0946,0 -0.25381,0.0905 -0.35388,0.20106 -0.10008,0.11058 -0.28195,0.20106 -0.40415,0.20106 -0.1222,0 -0.33521,0.0889 -0.47334,0.19756 -0.13814,0.10866 -0.46377,0.24521 -0.72364,0.30344 -0.25986,0.0582 -0.5714,0.16801 -0.69231,0.24393 -0.1209,0.0759 -0.44602,0.16959 -0.72248,0.20815 -0.27646,0.0386 -0.57122,0.13135 -0.65502,0.20621 -0.0838,0.0749 -0.5039,0.17977 -0.93355,0.23311 -0.42965,0.0533 -0.84943,0.15363 -0.93285,0.22286 -0.0834,0.0692 -0.72644,0.18182 -1.42892,0.2502 -0.70249,0.0684 -1.45821,0.17865 -1.67937,0.24503 -0.57541,0.17271 -8.1534,0.25884 -9.9013,0.11253 -0.7357,-0.0616 -1.38748,-0.15218 -1.44841,-0.20133 -0.0609,-0.0492 -0.58579,-0.12196 -1.16635,-0.16179 -0.58057,-0.0398 -1.21252,-0.13714 -1.40433,-0.21625 -0.19182,-0.0791 -0.68944,-0.19096 -1.10584,-0.24854 -0.41639,-0.0576 -0.82515,-0.16581 -0.90835,-0.24052 -0.0832,-0.0747 -0.39987,-0.16709 -0.70371,-0.2053 -0.30385,-0.0382 -0.68816,-0.14947 -0.85404,-0.24722 -0.16587,-0.0978 -0.45992,-0.21112 -0.65345,-0.25194 -0.19352,-0.0408 -0.45974,-0.15879 -0.5916,-0.26217 -0.13187,-0.10338 -0.33974,-0.18796 -0.46194,-0.18796 -0.12221,0 -0.30407,-0.0905 -0.40415,-0.20106 -0.10008,-0.11058 -0.25932,-0.20106 -0.35388,-0.20106 -0.0946,0 -0.28695,-0.0905 -0.42753,-0.20106 -0.14058,-0.11059 -0.28472,-0.20106 -0.32031,-0.20106 -0.0356,0 -0.0511,1.46092 -0.0344,3.24649 l 0.0303,3.24649 0.36201,0.37261 c 0.19911,0.20494 0.414,0.37261 0.47753,0.37261 0.0635,0 0.1155,0.0443 0.1155,0.0985 0,0.0542 0.18096,0.1908 0.40213,0.30363 0.22116,0.11283 0.40212,0.24456 0.40212,0.29274 0,0.0482 0.12083,0.11791 0.26852,0.15498 0.14769,0.0371 0.37999,0.15507 0.51621,0.26223 0.13623,0.10715 0.34337,0.195 0.46032,0.1952 0.11695,2e-4 0.35996,0.0902 0.54001,0.19998 0.18006,0.10978 0.51935,0.22986 0.75398,0.26686 0.23464,0.037 0.58495,0.14619 0.77847,0.24268 0.19352,0.0965 0.57805,0.20594 0.85451,0.24325 0.27646,0.0373 0.60508,0.13363 0.73028,0.21405 0.12519,0.0804 0.6002,0.17367 1.05557,0.20722 0.45537,0.0336 0.95607,0.12565 1.11266,0.20466 0.1808,0.0912 0.87797,0.17854 1.91008,0.23923 0.89395,0.0526 1.71584,0.11397 1.82643,0.13645 0.3452,0.0701 5.96458,-0.0321 7.35432,-0.13388 z m -1.17169,-9.56118 c 0.52527,-0.0439 1.24909,-0.15088 1.60849,-0.23772 0.35939,-0.0868 0.97012,-0.16047 1.35716,-0.16363 0.45608,-0.004 0.84593,-0.0703 1.10785,-0.18932 0.22227,-0.10097 0.74251,-0.21671 1.1561,-0.25719 0.41358,-0.0405 0.82353,-0.13795 0.911,-0.21661 0.0875,-0.0787 0.42254,-0.19174 0.74461,-0.25127 0.32206,-0.0595 0.68027,-0.167 0.79601,-0.23879 0.11573,-0.0718 0.36113,-0.15828 0.54531,-0.19217 0.18418,-0.0339 0.4504,-0.15251 0.59161,-0.26358 0.1412,-0.11107 0.34155,-0.20194 0.44521,-0.20194 0.10367,0 0.26596,-0.0905 0.36064,-0.20106 0.0947,-0.11059 0.24284,-0.20106 0.32923,-0.20106 0.18876,0 0.68185,-0.38961 1.27233,-1.00531 0.39941,-0.41648 0.43394,-0.49466 0.43493,-0.98496 7.6e-4,-0.43976 -0.0427,-0.5732 -0.25026,-0.76552 -0.13823,-0.1281 -0.25133,-0.28428 -0.25133,-0.34706 0,-0.0628 -0.0663,-0.11413 -0.14725,-0.11413 -0.081,0 -0.19569,-0.0905 -0.25487,-0.20107 -0.0592,-0.11058 -0.1704,-0.20106 -0.24715,-0.20106 -0.0768,0 -0.26742,-0.1069 -0.42372,-0.23756 -0.15629,-0.13067 -0.39727,-0.27261 -0.5355,-0.31543 -0.13822,-0.0428 -0.35921,-0.1621 -0.49107,-0.26508 -0.13187,-0.10298 -0.33668,-0.18723 -0.45515,-0.18723 -0.11848,0 -0.31165,-0.0674 -0.42929,-0.14981 -0.11763,-0.0824 -0.44055,-0.19842 -0.7176,-0.25784 -0.27704,-0.0594 -0.67543,-0.19557 -0.88531,-0.30258 -0.20988,-0.107 -0.5643,-0.19485 -0.7876,-0.19521 -0.2359,-3.8e-4 -0.53234,-0.0843 -0.70759,-0.2004 -0.1831,-0.12126 -0.47171,-0.2 -0.73461,-0.2004 -0.56314,-8.7e-4 -1.84694,-0.20674 -1.99285,-0.31958 -0.17209,-0.1331 -3.64973,-0.32056 -5.91817,-0.31902 -2.58113,0.002 -5.54319,0.18893 -5.99821,0.37904 -0.19047,0.0796 -0.75096,0.1755 -1.24554,0.21314 -0.51124,0.0389 -1.0026,0.13339 -1.13881,0.21899 -0.13178,0.0828 -0.54986,0.18951 -0.92908,0.23713 -0.37922,0.0476 -0.79165,0.15237 -0.91652,0.23279 -0.12486,0.0804 -0.40797,0.17769 -0.62914,0.21616 -0.22117,0.0385 -0.54318,0.1549 -0.71558,0.25876 -0.1724,0.10386 -0.40298,0.18883 -0.5124,0.18883 -0.10942,0 -0.30469,0.0917 -0.43393,0.2038 -0.12924,0.11209 -0.35105,0.23126 -0.4929,0.26483 -0.14186,0.0336 -0.32626,0.12003 -0.40978,0.19212 -0.3034,0.26191 -0.85869,0.64335 -1.07964,0.74162 -0.12441,0.0553 -0.2262,0.15953 -0.2262,0.23155 0,0.072 -0.0905,0.20841 -0.20106,0.3031 -0.15463,0.1324 -0.20106,0.29656 -0.20106,0.71092 0,0.53591 0.004,0.54228 0.69938,1.20434 0.38465,0.36607 0.81109,0.69363 0.94764,0.7279 0.13654,0.0343 0.32646,0.14872 0.42204,0.25433 0.0956,0.10562 0.25114,0.19203 0.3457,0.19203 0.0946,0 0.28221,0.0867 0.41702,0.19279 0.1348,0.10603 0.42364,0.2242 0.64187,0.26261 0.21823,0.0384 0.49728,0.1328 0.62012,0.20978 0.12284,0.077 0.46169,0.19108 0.75301,0.25354 0.29131,0.0625 0.62057,0.17305 0.73169,0.2457 0.11112,0.0727 0.51871,0.16384 0.90575,0.20261 0.38705,0.0388 0.86138,0.1542 1.05408,0.25652 0.24757,0.13141 0.56321,0.186 1.07576,0.186 0.73664,0 1.62693,0.13691 1.99192,0.30635 0.11058,0.0513 0.54035,0.10751 0.95504,0.12483 1.58644,0.0663 6.22516,0.0478 7.13767,-0.0285 z"
         id="path295-3" /><path
         style="fill:#000000;stroke-width:0.10053"
         d="m 266.88671,179.98353 c -1.52289,-0.0803 -2.39333,-0.16926 -2.66406,-0.27228 -0.22117,-0.0841 -0.8319,-0.18543 -1.35717,-0.22506 -0.52864,-0.0399 -1.05337,-0.13527 -1.17529,-0.21366 -0.12114,-0.0779 -0.48305,-0.17128 -0.80424,-0.20755 -0.3212,-0.0363 -0.74233,-0.14414 -0.93585,-0.23971 -0.19353,-0.0956 -0.57626,-0.2065 -0.85052,-0.24654 -0.27426,-0.04 -0.60834,-0.15908 -0.7424,-0.26452 -0.13406,-0.10546 -0.36644,-0.19173 -0.5164,-0.19173 -0.14996,0 -0.37377,-0.0877 -0.49736,-0.19489 -0.12359,-0.1072 -0.36157,-0.22495 -0.52884,-0.26169 -0.3035,-0.0667 -0.87934,-0.39594 -1.21243,-0.69328 -0.0968,-0.0864 -0.214,-0.15704 -0.26054,-0.15704 -0.21797,0 -1.62441,-1.36361 -1.62441,-1.57493 0,-0.0695 -0.10179,-0.22109 -0.22619,-0.33698 l -0.2262,-0.21072 -0.0264,-14.83893 c -0.0149,-8.34569 -0.0652,-14.88674 -0.11489,-14.94819 -0.0498,-0.0615 -0.0518,-0.32917 -0.005,-0.6119 0.0461,-0.27646 0.0871,-0.70623 0.0912,-0.95504 0.004,-0.24881 0.0735,-0.56549 0.1541,-0.70372 0.0806,-0.13821 0.21171,-0.38735 0.29125,-0.5536 0.16726,-0.34961 1.39089,-1.55754 1.57778,-1.55754 0.0693,0 0.19758,-0.069 0.28516,-0.15326 0.27779,-0.26739 0.86621,-0.61739 1.16333,-0.69196 0.15781,-0.0396 0.39838,-0.15969 0.53461,-0.26685 0.13623,-0.10715 0.3225,-0.19483 0.41393,-0.19483 0.0914,0 0.33156,-0.0843 0.53361,-0.18729 0.20205,-0.10301 0.5396,-0.21501 0.75011,-0.24888 0.2105,-0.0339 0.56195,-0.15316 0.78098,-0.26509 0.21904,-0.11193 0.58162,-0.20351 0.80573,-0.20351 0.22412,0 0.56516,-0.0843 0.75786,-0.18739 0.21641,-0.11574 0.6887,-0.21545 1.23529,-0.26079 0.48671,-0.0404 1.12967,-0.15942 1.4288,-0.26456 0.43829,-0.15405 0.85701,-0.19405 2.15668,-0.20605 1.1638,-0.0107 1.66162,-0.052 1.78818,-0.14804 0.23671,-0.17971 5.45211,-0.20097 5.63014,-0.0229 0.075,0.075 0.68306,0.13042 1.70399,0.15535 1.17575,0.0287 1.75721,0.0886 2.24218,0.23093 0.36013,0.10569 1.03871,0.22202 1.50796,0.25851 0.46925,0.0365 0.9533,0.12886 1.07566,0.20528 0.12236,0.0764 0.51221,0.17997 0.86633,0.23012 0.35412,0.0502 0.77581,0.15942 0.9371,0.24283 0.16128,0.0834 0.47264,0.18387 0.69189,0.22326 0.21926,0.0394 0.46718,0.13113 0.55094,0.20386 0.0837,0.0727 0.34711,0.17602 0.58524,0.22952 0.23813,0.0535 0.50889,0.1635 0.6017,0.24444 0.0928,0.0809 0.33476,0.20043 0.53768,0.26554 0.20292,0.0651 0.41966,0.17949 0.48164,0.25417 0.062,0.0747 0.22394,0.16371 0.3599,0.19784 0.13597,0.0341 0.24721,0.10581 0.24721,0.15931 0,0.0535 0.14702,0.16056 0.32672,0.23792 0.74127,0.31914 1.81011,1.68596 1.93607,2.47584 0.0397,0.24881 0.12357,0.51589 0.18644,0.59351 0.14656,0.18096 0.0993,10.02223 -0.0509,10.6033 -0.0699,0.27049 -0.0678,0.42279 0.007,0.49763 0.15913,0.15912 0.14989,9.13367 -0.01,9.29312 -0.0895,0.0895 -0.0891,0.21196 0.002,0.51554 0.14173,0.47306 0.16094,9.1188 0.0204,9.20563 -0.0479,0.0296 -0.11859,0.28249 -0.15702,0.56191 -0.0462,0.3363 -0.1344,0.54835 -0.26075,0.62725 -0.10497,0.0656 -0.19086,0.21004 -0.19086,0.32107 0,0.24792 -1.36914,1.55932 -1.62796,1.55932 -0.0999,0 -0.18159,0.0478 -0.18159,0.10618 0,0.0584 -0.2017,0.19541 -0.44822,0.30446 -0.24653,0.10904 -0.47229,0.23721 -0.50171,0.2848 -0.0294,0.0476 -0.17474,0.11696 -0.32295,0.15416 -0.14821,0.0372 -0.38093,0.15531 -0.51716,0.26247 -0.13623,0.10715 -0.3712,0.19484 -0.52217,0.19484 -0.15096,0 -0.38236,0.0841 -0.51422,0.18692 -0.13186,0.1028 -0.46595,0.21942 -0.74241,0.25915 -0.27645,0.0397 -0.60905,0.14063 -0.73909,0.22423 -0.13005,0.0836 -0.53719,0.19351 -0.90478,0.24424 -0.36758,0.0507 -0.80405,0.15965 -0.96992,0.24203 -0.16588,0.0824 -0.70874,0.18987 -1.20637,0.23887 -0.49762,0.049 -1.17621,0.15808 -1.50796,0.24243 -0.3745,0.0952 -1.55601,0.19566 -3.11645,0.26496 -2.89397,0.12851 -3.86718,0.1227 -6.98687,-0.0418 z m 7.1104,-2.25598 c 1.54712,-0.0695 2.3204,-0.14387 2.51327,-0.24177 0.15322,-0.0778 0.66305,-0.17402 1.13294,-0.21384 0.4699,-0.0398 1.01277,-0.14035 1.20637,-0.22335 0.19361,-0.083 0.657,-0.19074 1.02977,-0.23938 0.37276,-0.0486 0.77991,-0.1553 0.90477,-0.23702 0.12486,-0.0817 0.4306,-0.17798 0.67941,-0.21393 0.24882,-0.0359 0.56549,-0.14424 0.70372,-0.24064 0.13822,-0.0964 0.41642,-0.20619 0.61821,-0.24397 0.20179,-0.0378 0.42122,-0.13417 0.48762,-0.21418 0.0664,-0.08 0.27453,-0.17432 0.46249,-0.20959 0.18797,-0.0353 0.34176,-0.10189 0.34176,-0.14808 0,-0.10499 1.03493,-0.79843 1.19164,-0.79843 0.0634,0 0.11525,-0.0663 0.11525,-0.14726 0,-0.081 0.0799,-0.19002 0.1776,-0.2423 0.0977,-0.0523 0.25601,-0.34971 0.35186,-0.66097 0.14729,-0.47833 0.17426,-0.99155 0.17426,-3.31577 0,-2.97406 -0.0166,-3.05993 -0.52137,-2.69033 -0.12794,0.0937 -0.50404,0.30094 -0.8358,0.46058 -0.33174,0.15964 -0.76406,0.37082 -0.96069,0.46929 -0.19663,0.0985 -0.53592,0.21086 -0.75398,0.24975 -0.21805,0.0389 -0.53218,0.14984 -0.69806,0.24657 -0.16587,0.0967 -0.51682,0.2035 -0.77987,0.23728 -0.26306,0.0338 -0.57973,0.12691 -0.70371,0.20697 -0.124,0.0801 -0.56473,0.17635 -0.97942,0.21398 -0.41469,0.0376 -0.85987,0.135 -0.98929,0.2164 -0.14985,0.0942 -0.70924,0.18159 -1.54023,0.24051 -0.71771,0.0509 -1.39748,0.14206 -1.5106,0.2026 -0.11376,0.0609 -1.29526,0.15882 -2.64397,0.21917 -2.69885,0.12076 -7.17824,-0.008 -7.5702,-0.21802 -0.11883,-0.0636 -0.80428,-0.15398 -1.52322,-0.20087 -0.87171,-0.0568 -1.38429,-0.13577 -1.53869,-0.23694 -0.12733,-0.0834 -0.56965,-0.1842 -0.98293,-0.22392 -0.41328,-0.0397 -0.85786,-0.13991 -0.98796,-0.22263 -0.1301,-0.0827 -0.508,-0.18878 -0.83978,-0.23567 -0.33178,-0.0469 -0.67772,-0.15017 -0.76876,-0.2295 -0.091,-0.0793 -0.34131,-0.17578 -0.55615,-0.21434 -0.21485,-0.0386 -0.55347,-0.15739 -0.75249,-0.26406 -0.19903,-0.10667 -0.41299,-0.19394 -0.47546,-0.19394 -0.0625,0 -0.22148,-0.0843 -0.35335,-0.18724 -0.13186,-0.10297 -0.35285,-0.22229 -0.49108,-0.26515 -0.13823,-0.0429 -0.35843,-0.16156 -0.48933,-0.26379 -0.13091,-0.10222 -0.27793,-0.16119 -0.32673,-0.13103 -0.13708,0.0847 -0.11275,6.04191 0.0258,6.30759 0.14376,0.27576 1.30503,1.37467 1.4533,1.37526 0.0605,1.9e-4 0.18791,0.0864 0.28303,0.19153 0.0951,0.10512 0.32396,0.21945 0.50853,0.25406 0.18457,0.0346 0.35896,0.12387 0.38753,0.19833 0.0286,0.0745 0.2252,0.16751 0.43696,0.20677 0.21176,0.0393 0.52073,0.15257 0.6866,0.25179 0.16588,0.0992 0.48255,0.21186 0.70372,0.25032 0.22117,0.0385 0.4958,0.13018 0.6103,0.20381 0.1145,0.0736 0.47641,0.1662 0.80425,0.2057 0.32783,0.0395 0.78584,0.15687 1.0178,0.26081 0.23196,0.10395 0.59387,0.18924 0.80425,0.18956 0.37692,7.6e-4 1.24864,0.12958 1.73966,0.25745 0.56143,0.1462 1.63381,0.23489 2.96566,0.24526 0.77408,0.006 1.58838,0.0499 1.80955,0.0975 0.22116,0.0476 0.76403,0.0692 1.20636,0.048 0.44234,-0.0212 1.80985,-0.0837 3.03892,-0.13892 z m 0.37912,-9.67621 c 0.48313,-0.13368 0.66769,-0.15703 2.17476,-0.27508 0.65828,-0.0516 1.29543,-0.15669 1.45769,-0.24053 0.15854,-0.0819 0.60492,-0.18202 0.99196,-0.22253 0.38705,-0.0405 0.86205,-0.15296 1.05557,-0.24994 0.19352,-0.097 0.60067,-0.2092 0.90478,-0.24937 0.3041,-0.0402 0.62857,-0.13987 0.72104,-0.22152 0.0925,-0.0817 0.35075,-0.17299 0.57396,-0.20293 0.2232,-0.0299 0.48253,-0.1392 0.5763,-0.2428 0.0938,-0.10361 0.26777,-0.18837 0.38669,-0.18837 0.11891,0 0.3695,-0.1131 0.55686,-0.25133 0.18737,-0.13822 0.39813,-0.25132 0.46837,-0.25132 0.13704,0 0.34828,-0.17591 1.12394,-0.93594 0.41317,-0.40484 0.51193,-0.57532 0.6067,-1.04722 0.14953,-0.74458 0.1545,-5.61978 0.006,-5.71168 -0.0591,-0.0365 -0.0816,-0.14095 -0.05,-0.23212 0.0523,-0.15121 0.0463,-0.15161 -0.0689,-0.004 -0.0695,0.0887 -0.22194,0.19166 -0.33884,0.22876 -0.11691,0.0371 -0.29339,0.15679 -0.39219,0.26595 -0.0988,0.10918 -0.27441,0.19951 -0.39025,0.20074 -0.11583,9.9e-4 -0.32371,0.0907 -0.46193,0.19882 -0.13823,0.10813 -0.32093,0.1976 -0.406,0.19882 -0.0851,0.001 -0.33389,0.0949 -0.55292,0.20823 -0.21904,0.1133 -0.6213,0.2494 -0.89391,0.30243 -0.27261,0.053 -0.56667,0.15819 -0.65345,0.23366 -0.0868,0.0755 -0.4466,0.16851 -0.79958,0.20674 -0.353,0.0382 -0.74584,0.13768 -0.873,0.221 -0.12716,0.0833 -0.63002,0.19223 -1.11748,0.24202 -0.48746,0.0498 -1.06725,0.14221 -1.28842,0.20536 -1.86506,0.53254 -12.38528,0.53466 -14.02402,0.003 -0.19352,-0.0628 -0.75811,-0.16058 -1.25464,-0.21727 -0.49653,-0.0567 -0.99416,-0.1628 -1.10584,-0.23579 -0.11167,-0.073 -0.47401,-0.16645 -0.80518,-0.2077 -0.33117,-0.0412 -0.76094,-0.15441 -0.95504,-0.25147 -0.1941,-0.0971 -0.52816,-0.20362 -0.74236,-0.23679 -0.21421,-0.0332 -0.4642,-0.12794 -0.55555,-0.21061 -0.0913,-0.0827 -0.35509,-0.18053 -0.58609,-0.21747 -0.23101,-0.0369 -0.49696,-0.15219 -0.59101,-0.25611 -0.094,-0.10392 -0.24836,-0.18895 -0.34292,-0.18895 -0.0946,0 -0.28579,-0.0896 -0.42497,-0.19905 -0.13918,-0.10948 -0.37095,-0.24387 -0.51503,-0.29866 -0.23005,-0.0875 -0.2691,-0.0713 -0.32035,0.13296 -0.0321,0.12791 -0.0439,1.56292 -0.0263,3.18891 l 0.0321,2.95635 0.51869,0.52779 c 0.28529,0.29028 0.56249,0.52778 0.61601,0.52778 0.0535,0 0.1558,0.0705 0.22728,0.15661 0.0715,0.0861 0.26929,0.22265 0.43957,0.30337 0.17027,0.0807 0.44531,0.21994 0.61118,0.30937 0.73184,0.39457 1.03191,0.51725 1.42678,0.5833 0.2318,0.0388 0.47247,0.13196 0.53482,0.20708 0.0623,0.0751 0.37031,0.16747 0.68437,0.20522 0.31405,0.0378 0.64796,0.13609 0.742,0.21853 0.0986,0.0864 0.54544,0.192 1.05558,0.24935 0.48651,0.0547 0.98218,0.16111 1.10147,0.23644 0.12604,0.0796 0.67351,0.16527 1.3069,0.20451 0.5995,0.0372 1.13657,0.10396 1.19349,0.14848 0.0569,0.0445 0.23787,0.0807 0.40212,0.0804 0.16425,-2.9e-4 0.43435,0.0442 0.60023,0.0988 0.42921,0.1413 6.9269,0.13811 7.43926,-0.004 z m 1.0209,-9.8226 c 0.75913,-0.0556 1.44432,-0.15834 1.60849,-0.24121 0.1573,-0.0794 0.67986,-0.17093 1.16124,-0.20338 0.52312,-0.0353 0.96938,-0.12068 1.10925,-0.21231 0.12871,-0.0843 0.53323,-0.19571 0.89894,-0.2475 0.3657,-0.0518 0.77131,-0.16175 0.90135,-0.24433 0.13005,-0.0826 0.44002,-0.18293 0.68883,-0.22294 0.24882,-0.04 0.56028,-0.15746 0.69214,-0.26098 0.13187,-0.10352 0.3283,-0.18822 0.43653,-0.18822 0.10823,0 0.31181,-0.0905 0.45239,-0.20106 0.14058,-0.11059 0.33338,-0.20107 0.42843,-0.20107 0.0951,0 0.29486,-0.11309 0.44401,-0.25132 0.14915,-0.13823 0.32856,-0.25133 0.39868,-0.25133 0.0701,0 0.22175,-0.10179 0.33696,-0.22619 0.11521,-0.12441 0.35473,-0.35469 0.53227,-0.51173 0.542,-0.47941 0.60754,-0.93689 0.58919,-4.11268 -0.01,-1.68644 -0.0539,-2.78972 -0.11175,-2.78972 -0.0526,0 -0.21067,0.0905 -0.35125,0.20106 -0.14059,0.11058 -0.33297,0.20106 -0.42753,0.20106 -0.0946,0 -0.25381,0.0905 -0.35388,0.20106 -0.10008,0.11058 -0.28195,0.20106 -0.40415,0.20106 -0.1222,0 -0.33521,0.0889 -0.47334,0.19756 -0.13814,0.10866 -0.46377,0.24521 -0.72364,0.30344 -0.25986,0.0582 -0.5714,0.16801 -0.69231,0.24393 -0.1209,0.0759 -0.44602,0.16959 -0.72248,0.20815 -0.27646,0.0386 -0.57122,0.13135 -0.65502,0.20621 -0.0838,0.0749 -0.5039,0.17977 -0.93355,0.23311 -0.42965,0.0533 -0.84943,0.15363 -0.93285,0.22286 -0.0834,0.0692 -0.72644,0.18182 -1.42892,0.2502 -0.70249,0.0684 -1.45821,0.17865 -1.67937,0.24503 -0.57541,0.17272 -8.1534,0.25884 -9.9013,0.11253 -0.7357,-0.0616 -1.38748,-0.15218 -1.44841,-0.20133 -0.0609,-0.0492 -0.58579,-0.12196 -1.16635,-0.16179 -0.58057,-0.0398 -1.21252,-0.13714 -1.40433,-0.21625 -0.19182,-0.0791 -0.68944,-0.19096 -1.10584,-0.24854 -0.41639,-0.0576 -0.82515,-0.16581 -0.90835,-0.24052 -0.0832,-0.0747 -0.39987,-0.16709 -0.70371,-0.2053 -0.30385,-0.0382 -0.68816,-0.14947 -0.85404,-0.24722 -0.16587,-0.0978 -0.45992,-0.21112 -0.65345,-0.25194 -0.19352,-0.0408 -0.45974,-0.15879 -0.5916,-0.26217 -0.13187,-0.10338 -0.33974,-0.18796 -0.46194,-0.18796 -0.12221,0 -0.30407,-0.0905 -0.40415,-0.20106 -0.10008,-0.11058 -0.25932,-0.20105 -0.35388,-0.20105 -0.0946,0 -0.28695,-0.0905 -0.42753,-0.20107 -0.14058,-0.11059 -0.28472,-0.20106 -0.32031,-0.20106 -0.0356,0 -0.0511,1.46093 -0.0344,3.2465 l 0.0303,3.24649 0.36201,0.3726 c 0.19911,0.20495 0.414,0.37261 0.47753,0.37261 0.0635,0 0.1155,0.0443 0.1155,0.0985 0,0.0542 0.18096,0.1908 0.40213,0.30363 0.22116,0.11283 0.40212,0.24456 0.40212,0.29274 0,0.0482 0.12083,0.11791 0.26852,0.15498 0.14769,0.0371 0.37999,0.15507 0.51621,0.26223 0.13623,0.10715 0.34337,0.195 0.46032,0.1952 0.11695,2e-4 0.35996,0.0902 0.54001,0.19998 0.18006,0.10978 0.51935,0.22986 0.75398,0.26686 0.23464,0.037 0.58495,0.14619 0.77847,0.24268 0.19352,0.0965 0.57805,0.20594 0.85451,0.24325 0.27646,0.0373 0.60508,0.13363 0.73028,0.21405 0.12519,0.0804 0.6002,0.17367 1.05557,0.20722 0.45537,0.0336 0.95607,0.12565 1.11266,0.20467 0.1808,0.0912 0.87797,0.17854 1.91008,0.23923 0.89395,0.0526 1.71584,0.11396 1.82643,0.13644 0.3452,0.0701 5.96458,-0.0321 7.35432,-0.13388 z m -1.17169,-9.56118 c 0.52527,-0.0439 1.24909,-0.15088 1.60849,-0.23772 0.35939,-0.0868 0.97012,-0.16047 1.35716,-0.16363 0.45608,-0.004 0.84593,-0.0703 1.10785,-0.18933 0.22227,-0.10097 0.74251,-0.21671 1.1561,-0.25719 0.41358,-0.0405 0.82353,-0.13795 0.911,-0.21661 0.0875,-0.0787 0.42254,-0.19174 0.74461,-0.25127 0.32206,-0.0595 0.68027,-0.167 0.79601,-0.23879 0.11573,-0.0718 0.36113,-0.15828 0.54531,-0.19217 0.18418,-0.0339 0.4504,-0.15251 0.59161,-0.26358 0.1412,-0.11107 0.34155,-0.20194 0.44521,-0.20194 0.10367,0 0.26596,-0.0905 0.36064,-0.20106 0.0947,-0.11059 0.24284,-0.20106 0.32923,-0.20106 0.18876,0 0.68185,-0.3896 1.27233,-1.0053 0.39941,-0.41649 0.43394,-0.49467 0.43493,-0.98498 7.6e-4,-0.43975 -0.0427,-0.57319 -0.25026,-0.76551 -0.13823,-0.12811 -0.25133,-0.28428 -0.25133,-0.34706 0,-0.0628 -0.0663,-0.11413 -0.14725,-0.11413 -0.081,0 -0.19569,-0.0905 -0.25487,-0.20107 -0.0592,-0.11058 -0.1704,-0.20106 -0.24715,-0.20106 -0.0768,0 -0.26742,-0.1069 -0.42372,-0.23757 -0.15629,-0.13066 -0.39727,-0.2726 -0.5355,-0.31542 -0.13822,-0.0428 -0.35921,-0.16209 -0.49107,-0.26508 -0.13187,-0.10298 -0.33668,-0.18723 -0.45515,-0.18723 -0.11848,0 -0.31165,-0.0674 -0.42929,-0.14981 -0.11763,-0.0824 -0.44055,-0.19842 -0.7176,-0.25784 -0.27704,-0.0594 -0.67543,-0.19557 -0.88531,-0.30258 -0.20988,-0.10699 -0.5643,-0.19484 -0.7876,-0.19521 -0.2359,-3.8e-4 -0.53234,-0.0843 -0.70759,-0.2004 -0.1831,-0.12126 -0.47171,-0.2 -0.73461,-0.2004 -0.56314,-8.7e-4 -1.84694,-0.20674 -1.99285,-0.31958 -0.17209,-0.1331 -3.64973,-0.32056 -5.91817,-0.31902 -2.58113,0.002 -5.54319,0.18893 -5.99821,0.37904 -0.19047,0.0796 -0.75096,0.1755 -1.24554,0.21314 -0.51124,0.0389 -1.0026,0.13339 -1.13881,0.21899 -0.13178,0.0828 -0.54986,0.18951 -0.92908,0.23713 -0.37922,0.0476 -0.79165,0.15237 -0.91652,0.23279 -0.12486,0.0804 -0.40797,0.17769 -0.62914,0.21616 -0.22117,0.0385 -0.54318,0.1549 -0.71558,0.25877 -0.1724,0.10386 -0.40298,0.18882 -0.5124,0.18882 -0.10942,0 -0.30469,0.0917 -0.43393,0.2038 -0.12924,0.11209 -0.35105,0.23126 -0.4929,0.26483 -0.14186,0.0336 -0.32626,0.12002 -0.40978,0.19213 -0.3034,0.26191 -0.85869,0.64334 -1.07964,0.74161 -0.12441,0.0553 -0.2262,0.15953 -0.2262,0.23155 0,0.072 -0.0905,0.20842 -0.20106,0.3031 -0.15463,0.1324 -0.20106,0.29656 -0.20106,0.71093 0,0.53591 0.004,0.54227 0.69938,1.20434 0.38465,0.36606 0.81109,0.69362 0.94764,0.72789 0.13654,0.0343 0.32646,0.14873 0.42204,0.25433 0.0956,0.10562 0.25114,0.19203 0.3457,0.19203 0.0946,0 0.28221,0.0867 0.41702,0.19279 0.1348,0.10603 0.42364,0.22421 0.64187,0.26261 0.21823,0.0384 0.49728,0.1328 0.62012,0.20977 0.12284,0.077 0.46169,0.19108 0.75301,0.25356 0.29131,0.0625 0.62057,0.17304 0.73169,0.2457 0.11112,0.0727 0.51871,0.16383 0.90575,0.20261 0.38705,0.0388 0.86138,0.1542 1.05408,0.25651 0.24757,0.13141 0.56321,0.186 1.07576,0.186 0.73664,0 1.62693,0.13692 1.99192,0.30635 0.11058,0.0513 0.54035,0.10752 0.95504,0.12483 1.58644,0.0663 6.22516,0.0478 7.13767,-0.0285 z"
         id="path295-3-6" /></g><rect
       style="fill:#00ffff;stroke:#2b0000;stroke-width:0.264583"
       id="rect2120"
       width="85.679924"
       height="85.679924"
       x="186.62744"
       y="23.161097" /><rect
       style="fill:#ffffff;stroke:#000000;stroke-width:0.264583"
       id="rect2120-5"
       width="85.679924"
       height="85.679924"
       x="25.326593"
       y="23.161097" /><rect
       style="fill:none;stroke:#2b0000;stroke-width:0.264051"
       id="rect2040"
       width="296.73593"
       height="209.73595"
       x="0.13202579"
       y="0.13202579" /><g
       id="g5698"
       transform="translate(117.17189,-23.173753)"
       style="stroke:#cccccc;fill:#cccccc"><text
         xml:space="preserve"
         style="font-size:22.5778px;font-family:'Source Sans Pro';-inkscape-font-specification:'Source Sans Pro';fill:#cccccc;stroke:#cccccc;stroke-width:0.264583"
         x="-67.248215"
         y="84.611717"
         id="text2178-6"><tspan
           sodipodi:role="line"
           id="tspan2176-2"
           style="font-size:22.5778px;fill:#cccccc;stroke:#cccccc;stroke-width:0.264583"
           x="-67.248215"
           y="84.611717">SAS</tspan></text><text
         xml:space="preserve"
         style="font-size:11.2889px;font-family:'Source Sans Pro';-inkscape-font-specification:'Source Sans Pro';fill:#cccccc;stroke:#cccccc;stroke-width:0.264583"
         x="-62.405262"
         y="65.118446"
         id="text5590"><tspan
           sodipodi:role="line"
           id="tspan5588"
           style="fill:#cccccc;stroke:#cccccc;stroke-width:0.264583"
           x="-62.405262"
           y="65.118446">client</tspan></text></g><text
       xml:space="preserve"
       style="font-size:22.5778px;font-family:'Source Sans Pro';-inkscape-font-specification:'Source Sans Pro';fill:#ffffff;stroke:#ffffff;stroke-width:0.264583"
       x="191.63831"
       y="61.437965"
       id="text2178-6-9"><tspan
         sodipodi:role="line"
         id="tspan2176-2-1"
         style="font-size:22.5778px;fill:#000000;stroke:#000000;stroke-width:0.264583"
         x="191.63831"
         y="61.437965">ORACLE</tspan></text><text
       xml:space="preserve"
       style="font-size:11.2889px;font-family:'Source Sans Pro';-inkscape-font-specification:'Source Sans Pro';fill:none;stroke:#2b0000;stroke-width:0.264583"
       x="211.57449"
       y="41.944691"
       id="text5590-2"><tspan
         sodipodi:role="line"
         id="tspan5588-7"
         style="fill:#000000;stroke:#000000;stroke-width:0.264583"
         x="211.57449"
         y="41.944691">serveur</tspan></text><rect
       style="fill:#cccccc;stroke:#cccccc;stroke-width:0.264583"
       id="rect5752"
       width="54.162083"
       height="1.0628537"
       x="41.085514"
       y="65.469627" /><rect
       style="fill:#000000;stroke:#000000;stroke-width:0.264583"
       id="rect5752-0"
       width="54.162083"
       height="1.0628537"
       x="202.38637"
       y="65.469627" /><text
       xml:space="preserve"
       style="font-size:7.05556px;font-family:'Source Sans Pro';-inkscape-font-specification:'Source Sans Pro';text-align:center;text-anchor:middle;fill:#000000;stroke:#000000;stroke-width:0.264583"
       x="148.52469"
       y="205.65154"
       id="text10439"><tspan
         sodipodi:role="line"
         id="tspan10437"
         style="font-size:7.05556px;stroke-width:0.264583"
         x="148.52469"
         y="205.65154">Solution 2 : EXECUTE BY ORACLE</tspan></text><g
       id="g1176"
       transform="translate(0,11.616591)"><g
         id="g2027"
         transform="matrix(1.4085925,0,0,1.282045,229.85027,-30.287649)"><rect
           style="fill:#ff6600;stroke:#ff6600;stroke-width:0.264583"
           id="rect1969"
           width="39.963264"
           height="7.4309883"
           x="-82.369598"
           y="62.307125" /><path
           sodipodi:type="star"
           style="fill:#ff6600;stroke:#ff6600;stroke-width:0.264583"
           id="path2023"
           inkscape:flatsided="false"
           sodipodi:sides="3"
           sodipodi:cx="-53.729458"
           sodipodi:cy="56.864124"
           sodipodi:r1="9.9912367"
           sodipodi:r2="4.9956183"
           sodipodi:arg1="-0.03581676"
           sodipodi:arg2="1.0113808"
           inkscape:rounded="0"
           inkscape:randomized="0"
           d="m -43.744629,56.506347 -7.3337,4.591891 -7.333699,4.59189 -0.309844,-8.647115 -0.309844,-8.647115 7.643543,4.055224 z"
           inkscape:transform-center-x="-2.3412857"
           inkscape:transform-center-y="0.17888789"
           transform="translate(10.926426,8.9968247)" /></g><text
         xml:space="preserve"
         style="font-size:7.05556px;font-family:'Source Sans Pro';-inkscape-font-specification:'Source Sans Pro';text-align:center;text-anchor:middle;fill:#000000;stroke:#000000;stroke-width:0.264583"
         x="145.87131"
         y="56.271832"
         id="text1169"><tspan
           sodipodi:role="line"
           id="tspan1167"
           style="stroke-width:0.264583"
           x="145.87131"
           y="56.271832">code PL/SQL</tspan></text><text
         xml:space="preserve"
         transform="matrix(0.26458333,0,0,0.26458333,0,-11.616591)"
         id="text3882"
         style="fill:#000000;font-size:26.66666667px;-inkscape-font-specification:'Source Sans Pro';font-family:'Source Sans Pro';stroke:#000000;text-align:center;white-space:pre;shape-inside:url(#rect3884)" /></g><g
       id="g1712"
       transform="matrix(0.01351594,0,0,0.01351594,211.9631,85.292632)"><path
         d="m 833.406,229.326 c -71.416,-11.159 -144.136,-11.159 -215.558,0 l 33.351,124.462 c -49.406,6.502 -97.746,19.457 -143.785,38.527 L 474.063,267.853 c -67.432,26.05 -130.41,62.41 -186.675,107.783 l 91.104,91.111 c -39.53,30.335 -74.923,65.72 -105.258,105.258 L 182.123,480.894 C 136.75,537.167 100.39,600.144 74.347,667.576 l 124.455,33.344 c -19.071,46.039 -32.019,94.386 -38.527,143.792 L 35.82,811.361 c -11.159,71.423 -11.159,144.136 0,215.558 l 124.455,-33.351 c 6.509,49.406 19.457,97.753 38.527,143.792 l -124.455,33.344 c 26.043,67.432 62.403,130.41 107.776,186.682 l 91.111,-91.111 c 30.335,39.537 65.727,74.922 105.258,105.258 l -91.104,91.111 c 56.266,45.373 119.243,81.733 186.675,107.783 l 33.351,-124.462 c 46.039,19.071 94.379,32.026 143.785,38.527 l -33.351,124.462 c 71.423,11.159 144.143,11.159 215.558,0 l -33.344,-124.462 c 49.406,-6.502 97.746,-19.457 143.785,-38.527 l 33.351,124.462 c 67.425,-26.05 130.403,-62.41 186.675,-107.783 l -91.111,-91.111 c 39.537,-30.335 74.923,-65.72 105.258,-105.258 l 91.11,91.111 c 45.38,-56.273 81.733,-119.25 107.783,-186.682 l -124.462,-33.344 c 19.071,-46.039 32.026,-94.386 38.527,-143.792 l 124.462,33.351 c 11.159,-71.423 11.159,-144.136 0,-215.558 l -124.462,33.351 c -6.502,-49.406 -19.457,-97.753 -38.527,-143.792 l 124.462,-33.344 c -26.05,-67.432 -62.403,-130.41 -107.783,-186.682 l -91.11,91.111 c -30.335,-39.537 -65.72,-74.923 -105.258,-105.258 l 91.111,-91.111 C 1107.6,330.263 1044.623,293.903 977.198,267.853 L 943.847,392.315 C 897.808,373.244 849.468,360.289 800.062,353.788 Z M 725.631,779.504 c 77.069,0 139.633,62.571 139.633,139.633 0,77.069 -62.564,139.64 -139.633,139.64 -77.069,0 -139.64,-62.571 -139.64,-139.64 0,-77.062 62.571,-139.633 139.64,-139.633 z"
         id="path1605" /><path
         d="m 1638.589,119.496 c -50.43,34.67 -95.172,76.964 -132.619,125.367 l 92.899,57.177 c -26.618,32.734 -48.824,68.82 -66.057,107.327 l -92.906,-57.177 c -26.337,55.242 -43.935,114.235 -52.169,174.878 l 109.045,3.065 c -6.684,41.656 -7.876,84.013 -3.549,125.977 l -109.045,-3.065 c 4.812,61.007 19.071,120.899 42.259,177.536 l 95.971,-51.868 c 15.038,39.418 35.182,76.697 59.913,110.876 l -95.964,51.861 c 34.67,50.43 76.964,95.172 125.359,132.626 l 57.177,-92.899 c 32.741,26.611 68.821,48.824 107.334,66.057 l -57.184,92.899 c 55.242,26.337 114.235,43.942 174.878,52.176 l 3.072,-109.045 c 41.656,6.677 84.012,7.87 125.977,3.542 l -3.072,109.045 c 61.014,-4.812 120.906,-19.064 177.536,-42.259 l -51.861,-95.964 c 39.418,-15.045 76.69,-35.189 110.869,-59.92 l 51.868,95.971 c 50.43,-34.67 95.172,-76.964 132.619,-125.367 l -92.899,-57.177 c 26.618,-32.734 48.824,-68.82 66.064,-107.327 l 92.899,57.177 c 26.337,-55.242 43.935,-114.235 52.169,-174.878 l -109.045,-3.065 c 6.684,-41.663 7.876,-84.013 3.549,-125.977 l 109.045,3.065 c -4.812,-61.007 -19.071,-120.899 -42.259,-177.536 l -95.971,51.868 c -15.038,-39.418 -35.182,-76.697 -59.913,-110.876 l 95.964,-51.861 c -34.67,-50.43 -76.957,-95.172 -125.359,-132.626 l -57.177,92.899 c -32.741,-26.611 -68.821,-48.824 -107.327,-66.057 l 57.177,-92.899 C 2172.615,46.705 2113.621,29.1 2052.978,20.866 l -3.072,109.045 c -41.656,-6.684 -84.006,-7.87 -125.977,-3.542 l 3.072,-109.045 c -61.014,4.812 -120.906,19.064 -177.536,42.252 l 51.861,95.971 c -39.418,15.045 -76.69,35.189 -110.869,59.92 z m 253.658,401.181 c 47.414,-44.819 122.302,-42.715 167.12,4.699 44.819,47.421 42.708,122.301 -4.706,167.12 -47.414,44.819 -122.302,42.715 -167.12,-4.699 -44.82,-47.421 -42.708,-122.301 4.706,-167.12 z"
         id="path1607" /></g><text
       xml:space="preserve"
       style="font-size:7.05556px;font-family:'Source Sans Pro';-inkscape-font-specification:'Source Sans Pro';text-align:center;text-anchor:middle;fill:#000000;stroke:#000000;stroke-width:0.264583"
       x="229.28043"
       y="73.939857"
       id="text1755"><tspan
         sodipodi:role="line"
         id="tspan1753"
         style="stroke-width:0.264583"
         x="229.28043"
         y="73.939857">Exécution de</tspan><tspan
         sodipodi:role="line"
         style="stroke-width:0.264583"
         x="229.28043"
         y="82.759308"
         id="tspan1757">la requête</tspan></text><g
       id="g4244"
       transform="translate(76.361221,-6.4612168)"><rect
         style="fill:#ffcc00;stroke:#ffcc00;stroke-width:0.264583"
         id="rect4046"
         width="114.46114"
         height="13.466514"
         x="95.87561"
         y="120.06918" /><text
         xml:space="preserve"
         style="font-size:11.2889px;font-family:'Source Sans Pro';-inkscape-font-specification:'Source Sans Pro';text-align:center;text-anchor:middle;fill:#ffcc00;stroke:#ffcc00;stroke-width:0.264583"
         x="153.16263"
         y="130.75356"
         id="text4239"><tspan
           sodipodi:role="line"
           id="tspan4237"
           style="fill:#000000;stroke:#000000;stroke-width:0.264583"
           x="153.16263"
           y="130.75356">Table PARISIENS</tspan></text></g></g></svg>
